<svg width="12" height="10" viewBox="0 0 12 10" fill="none" xmlns="http://www.w3.org/2000/svg">
<path d="M10.7578 4.40833C10.6804 4.33023 10.5882 4.26823 10.4867 4.22592C10.3851 4.18362 10.2762 4.16183 10.1662 4.16183C10.0562 4.16183 9.94724 4.18362 9.84569 4.22592C9.74414 4.26823 9.65197 4.33023 9.5745 4.40833L6.83284 7.15833V0.833333C6.83284 0.61232 6.74504 0.400358 6.58876 0.244078C6.43248 0.0877975 6.22052 0 5.9995 0C5.77849 0 5.56653 0.0877975 5.41025 0.244078C5.25397 0.400358 5.16617 0.61232 5.16617 0.833333V7.15833L2.4245 4.40833C2.26758 4.25141 2.05475 4.16326 1.83284 4.16326C1.61092 4.16326 1.39809 4.25141 1.24117 4.40833C1.08425 4.56525 0.996094 4.77808 0.996094 5C0.996094 5.22192 1.08425 5.43475 1.24117 5.59167L5.40784 9.75833C5.48709 9.8342 5.58054 9.89367 5.68284 9.93333C5.78259 9.97742 5.89044 10.0002 5.9995 10.0002C6.10856 10.0002 6.21642 9.97742 6.31617 9.93333C6.41846 9.89367 6.51192 9.8342 6.59117 9.75833L10.7578 5.59167C10.8359 5.5142 10.8979 5.42203 10.9402 5.32048C10.9826 5.21893 11.0043 5.11001 11.0043 5C11.0043 4.88999 10.9826 4.78107 10.9402 4.67952C10.8979 4.57797 10.8359 4.4858 10.7578 4.40833Z" fill="#F0FDF4"/>
</svg>
